%YAML 1.1
%TAG !u! tag:unity3d.com,2011:
--- !u!1045 &1
EditorBuildSettings:
  m_ObjectHideFlags: 0
  serializedVersion: 2
  m_Scenes:
  - enabled: 0
    path: Assets/Scenes/SampleScene.unity
    guid: 99c9720ab356a0642a771bea13969a05
  - enabled: 0
    path: Assets/Scenes/MainMenu.unity
    guid: 7022778ca2b1bbb4f8820146a02ceb51
  - enabled: 1
    path: Assets/Scenes/Level 1.unity
    guid: bc580e7baa3d6d848b5d91f3a750d12c
  m_configObjects: {}
